visualizing spatial data II
…
---

## Inspect the data

.midi[

```r
fisheries
```

```
## # A tibble: 216 × 3
##   country        capture aquaculture
##   <chr>            <dbl>       <dbl>
## 1 China         17800000    63700000
## 2 Indonesia      6584419    16600000
## 3 India          5082332     5703002
## 4 Vietnam        2785940     3634531
## 5 United States  4931017      444369
## 6 Russia         4773413      173840
## # … with 210 more rows
```
…
.pull-left[

```r
fisheries <- fisheries %>%
  mutate(total = capture + aquaculture)
```
]
.pull-right[

```r
fisheries
```

```
## # A tibble: 216 × 4
##   country        capture aquaculture    total
##   <chr>            <dbl>       <dbl>    <dbl>
## 1 China         17800000    63700000 81500000
## 2 Indonesia      6584419    16600000 23184419
## 3 India          5082332     5703002 10785334
## 4 Vietnam        2785940     3634531  6420471
## 5 United States  4931017      444369  5375386
## 6 Russia         4773413      173840  4947253
## # … with 210 more rows
```
…
<img src="13-visualize-spatial-II_files/figure-html/unnamed-chunk-10-1.png" width="70%" />
]

---

## Join fisheries and world map

.pull-left[

```r
fisheries %>% select(country)
```

```
## # A tibble: 216 × 1
##   country      
##   <chr>        
## 1 China        
## 2 Indonesia    
## 3 India        
## 4 Vietnam      
## 5 United States
## 6 Russia       
## # … with 210 more rows
```
]
.pull-right[

```r
world_map %>% select(region)
```

```
## # A tibble: 99,338 × 1
##   region
##   <chr> 
## 1 Aruba 
## 2 Aruba 
## 3 Aruba 
## 4 Aruba 
## 5 Aruba 
## 6 Aruba 
## # … with 99,332 more rows
```
…
## Daily US vaccine data by state

.small[

```r
us_state_vaccinations <- read_csv(here::here("data/us_state_vaccinations.csv"))
```

```r
us_state_vaccinations
```

```
## # A tibble: 17,501 × 14
##   date       location total_vaccinations total_distributed people_vaccinated
##   <date>     <chr>                 <dbl>             <dbl>             <dbl>
## 1 2021-01-12 Alabama               78134            377025             70861
## 2 2021-01-13 Alabama               84040            378975             74792
## 3 2021-01-14 Alabama               92300            435350             80480
## 4 2021-01-15 Alabama              100567            444650             86956
## 5 2021-01-16 Alabama                  NA                NA                NA
## 6 2021-01-17 Alabama                  NA                NA                NA
## # … with 17,495 more rows, and 9 more variables:
## #   people_fully_vaccinated_per_hundred <dbl>,
## #   total_vaccinations_per_hundred <dbl>, people_fully_vaccinated <dbl>,
## #   people_vaccinated_per_hundred <dbl>, distributed_per_hundred <dbl>,
## #   daily_vaccinations_raw <dbl>, daily_vaccinations <dbl>,
## #   daily_vaccinations_per_million <dbl>, share_doses_used <dbl>
```
…
---

## Bring in 2020 Presidential election results

```r
election_2020 <- read_csv(here::here("data/us-election-2020.csv"))
```

```r
election_2020
```

```
## # A tibble: 51 × 5
##   state      electoal_votes biden trump win       
##   <chr>               <dbl> <dbl> <dbl> <chr>     
## 1 Alabama                 9     0     9 Republican
## 2 Alaska                  3     0     3 Republican
## 3 Arizona                11    11     0 Democrat  
## 4 Arkansas                6     0     6 Republican
## 5 California             55    55     0 Democrat  
## 6 Colorado                9     9     0 Democrat  
## # … with 45 more rows
```
…
