visualizing spatial data I
…
```r
sf <- sf %>%
  mutate(
    year = year(date), 
    month = month(date),
    day = day(date),
    fake_date = ymd(as.Date(paste0(2000, "-", month, "-", day))),
    .after = date
    )

sf
```

```
## # A tibble: 2,105 × 17
##   date        year month   day fake_date  aqi_value cum_good_aqi main_pollutant
##   <date>     <dbl> <dbl> <int> <date>         <dbl>        <dbl> <chr>         
## 1 2016-01-01  2016     1     1 2000-01-01        32            1 PM2.5         
## 2 2016-01-02  2016     1     2 2000-01-02        37            2 PM2.5         
## 3 2016-01-03  2016     1     3 2000-01-03        45            3 PM2.5         
## 4 2016-01-04  2016     1     4 2000-01-04        33            4 PM2.5         
## 5 2016-01-05  2016     1     5 2000-01-05        27            5 PM2.5         
## 6 2016-01-06  2016     1     6 2000-01-06        39            6 PM2.5         
## # … with 2,099 more rows, and 9 more variables: site_name <chr>, site_id <chr>,
## #   source <chr>, x20_year_high_2000_2019 <dbl>, x20_year_low_2000_2019 <dbl>,
## #   x5_year_average_2015_2019 <dbl>, date_of_20_year_high <chr>,
## #   date_of_20_year_low <chr>, good_aqi <dbl>
```
…
