grammar of graphics
…
.midi[

```r
library(tidyverse)

staff_long <- staff %>%
  pivot_longer(cols = -faculty_type, names_to = "year", 
               values_to = "percentage") %>%
  mutate(percentage = as.numeric(percentage))

staff_long
```

```
## # A tibble: 55 × 3
##    faculty_type              year  percentage
##    <chr>                     <chr>      <dbl>
##  1 Full-Time Tenured Faculty 1975        29  
##  2 Full-Time Tenured Faculty 1989        27.6
##  3 Full-Time Tenured Faculty 1993        25  
##  4 Full-Time Tenured Faculty 1995        24.8
##  5 Full-Time Tenured Faculty 1999        21.8
##  6 Full-Time Tenured Faculty 2001        20.3
##  7 Full-Time Tenured Faculty 2003        19.3
##  8 Full-Time Tenured Faculty 2005        17.8
##  9 Full-Time Tenured Faculty 2007        17.2
## 10 Full-Time Tenured Faculty 2009        16.8
## # … with 45 more rows
```
…
