data wrangling I
…
## Rowwise operations

.task[
We want to calculate the total number of guests for each booking. Why does the following not work?
]

```r
hotels %>%
  select(adults, children, babies) %>%
  mutate(guests = sum(c(adults, children, babies)))
```

```
## # A tibble: 119,390 × 4
##   adults children babies guests
##    <dbl>    <dbl>  <dbl>  <dbl>
## 1      2        0      0     NA
## 2      2        0      0     NA
## 3      1        0      0     NA
## 4      1        0      0     NA
## 5      2        0      0     NA
## 6      2        0      0     NA
## # … with 119,384 more rows
```

---

## Rowwise operations

```r
hotels %>%
  select(adults, children, babies) %>%
* rowwise() %>%
  mutate(guests = sum(c(adults, children, babies))) %>%
  filter(adults > 0, children > 0, babies > 0) # to show sum works
```

```
## # A tibble: 172 × 4
## # Rowwise: 
##   adults children babies guests
##    <dbl>    <dbl>  <dbl>  <dbl>
## 1      2        1      1      4
## 2      2        1      1      4
## 3      2        1      1      4
## 4      2        1      1      4
## 5      2        1      1      4
## 6      2        1      1      4
## # … with 166 more rows
```
…
