visualizing time series data
…
<img src="11-visualize-time-series_files/figure-html/unnamed-chunk-8-1.png" width="60%" />

---

## Peek at data

```r
dch_2021 %>%
  select(date, aqi_value, site_name, site_id)
```

```
## # A tibble: 365 × 4
##   date       aqi_value site_name     site_id    
##   <chr>      <chr>     <chr>         <chr>      
## 1 01/01/2021 25        Durham Armory 37-063-0015
## 2 01/02/2021 22        Durham Armory 37-063-0015
## 3 01/03/2021 19        Durham Armory 37-063-0015
## 4 01/04/2021 16        Durham Armory 37-063-0015
## 5 01/05/2021 38        Durham Armory 37-063-0015
## 6 01/06/2021 19        Durham Armory 37-063-0015
## # … with 359 more rows
```

---

## Transforming date

Using `lubridate::mdy()`:

```r
dch_2021 %>%
  mutate(date = mdy(date))
```

```
## # A tibble: 365 × 11
##   date       aqi_value main_pollutant site_name     site_id     source x20_year_high_2…
##   <date>     <chr>     <chr>          <chr>         <chr>       <chr>             <dbl>
## 1 2021-01-01 25        PM2.5          Durham Armory 37-063-0015 AQS                 111
## 2 2021-01-02 22        PM2.5          Durham Armory 37-063-0015 AQS                  76
## 3 2021-01-03 19        PM2.5          Durham Armory 37-063-0015 AQS                  66
## 4 2021-01-04 16        PM2.5          Durham Armory 37-063-0015 AQS                  61
## 5 2021-01-05 38        PM2.5          Durham Armory 37-063-0015 AQS                  83
## 6 2021-01-06 19        PM2.5          Durham Armory 37-063-0015 AQS                  71
## # … with 359 more rows, and 4 more variables: x20_year_low_2000_2019 <dbl>,
## #   x5_year_average_2015_2019 <dbl>, date_of_20_year_high <chr>,
## #   date_of_20_year_low <chr>
```
…
.task[
What does this warning mean?
]

```r
dch_2021 %>%
  mutate(aqi_value = as.numeric(aqi_value))
```

```
## Warning in mask$eval_all_mutate(quo): NAs introduced by coercion
```

```
## # A tibble: 365 × 11
##   date       aqi_value main_pollutant site_name     site_id     source x20_year_high_2…
##   <chr>          <dbl> <chr>          <chr>         <chr>       <chr>             <dbl>
## 1 01/01/2021        25 PM2.5          Durham Armory 37-063-0015 AQS                 111
## 2 01/02/2021        22 PM2.5          Durham Armory 37-063-0015 AQS                  76
## 3 01/03/2021        19 PM2.5          Durham Armory 37-063-0015 AQS                  66
## 4 01/04/2021        16 PM2.5          Durham Armory 37-063-0015 AQS                  61
## 5 01/05/2021        38 PM2.5          Durham Armory 37-063-0015 AQS                  83
## 6 01/06/2021        19 PM2.5          Durham Armory 37-063-0015 AQS                  71
## # … with 359 more rows, and 4 more variables: x20_year_low_2000_2019 <dbl>,
## #   x5_year_average_2015_2019 <dbl>, date_of_20_year_high <chr>,
## #   date_of_20_year_low <chr>
```
…
---

## Data cleaning

```r
dch_2021 <- dch_2021 %>%
  janitor::clean_names() %>%
  mutate(date = mdy(date))

dch_2021
```

```
## # A tibble: 365 × 11
##   date       aqi_value main_pollutant site_name     site_id     source x20_year_high_2…
##   <date>         <dbl> <chr>          <chr>         <chr>       <chr>             <dbl>
## 1 2021-01-01        25 PM2.5          Durham Armory 37-063-0015 AQS                 111
## 2 2021-01-02        22 PM2.5          Durham Armory 37-063-0015 AQS                  76
## 3 2021-01-03        19 PM2.5          Durham Armory 37-063-0015 AQS                  66
## 4 2021-01-04        16 PM2.5          Durham Armory 37-063-0015 AQS                  61
## 5 2021-01-05        38 PM2.5          Durham Armory 37-063-0015 AQS                  83
## 6 2021-01-06        19 PM2.5          Durham Armory 37-063-0015 AQS                  71
## # … with 359 more rows, and 4 more variables: x20_year_low_2000_2019 <dbl>,
## #   x5_year_average_2015_2019 <dbl>, date_of_20_year_high <chr>,
## #   date_of_20_year_low <chr>
```
…
---

## Calculating cumulatives

Step 1. Arrange your data

```r
dch_2021 %>%
  select(date, aqi_value) %>%
  filter(!is.na(aqi_value)) %>%
  arrange(date)
```

```
## # A tibble: 278 × 2
##   date       aqi_value
##   <date>         <dbl>
## 1 2021-01-01        25
## 2 2021-01-02        22
## 3 2021-01-03        19
## 4 2021-01-04        16
## 5 2021-01-05        38
## 6 2021-01-06        19
## # … with 272 more rows
```
…
## Calculating cumulatives

Step 2. Identify good days

```r
dch_2021 %>%
  select(date, aqi_value) %>%
  filter(!is.na(aqi_value)) %>%
  arrange(date) %>%
  mutate(good_aqi = if_else(aqi_value <= 50, 1, 0))
```

```
## # A tibble: 278 × 3
##   date       aqi_value good_aqi
##   <date>         <dbl>    <dbl>
## 1 2021-01-01        25        1
## 2 2021-01-02        22        1
## 3 2021-01-03        19        1
## 4 2021-01-04        16        1
## 5 2021-01-05        38        1
## 6 2021-01-06        19        1
## # … with 272 more rows
```
…
Step 3. Sum over time

```r
dch_2021 %>%
  select(date, aqi_value) %>%
  filter(!is.na(aqi_value)) %>%
  arrange(date) %>%
  mutate(
    good_aqi = if_else(aqi_value <= 50, 1, 0),
    cum_good_aqi = cumsum(good_aqi)
    )
```

```
## # A tibble: 278 × 4
##   date       aqi_value good_aqi cum_good_aqi
##   <date>         <dbl>    <dbl>        <dbl>
## 1 2021-01-01        25        1            1
## 2 2021-01-02        22        1            2
## 3 2021-01-03        19        1            3
## 4 2021-01-04        16        1            4
## 5 2021-01-05        38        1            5
## 6 2021-01-06        19        1            6
## # … with 272 more rows
```
…
dch <- dch %>%
  janitor::clean_names() %>%
  mutate(
    date = mdy(date),
    good_aqi = if_else(aqi_value <= 50, 1, 0)
  ) %>%
  filter(!is.na(aqi_value)) %>%
  arrange(date) %>%
  mutate(cum_good_aqi = cumsum(good_aqi), .after = aqi_value)

dch
```

```
## # A tibble: 2,096 × 13
##   date       aqi_value cum_good_aqi main_pollutant site_name    site_id   source
##   <date>         <dbl>        <dbl> <chr>          <chr>        <chr>     <chr> 
## 1 2016-01-01        32            1 PM2.5          Durham Armo… 37-063-0… AQS   
## 2 2016-01-02        37            2 PM2.5          Durham Armo… 37-063-0… AQS   
## 3 2016-01-03        45            3 PM2.5          Durham Armo… 37-063-0… AQS   
## 4 2016-01-04        33            4 PM2.5          Durham Armo… 37-063-0… AQS   
## 5 2016-01-05        27            5 PM2.5          Durham Armo… 37-063-0… AQS   
## 6 2016-01-06        39            6 PM2.5          Durham Armo… 37-063-0… AQS   
## # … with 2,090 more rows, and 6 more variables: x20_year_high_2000_2019 <dbl>,
## #   x20_year_low_2000_2019 <dbl>, x5_year_average_2015_2019 <dbl>,
## #   date_of_20_year_high <chr>, date_of_20_year_low <chr>, good_aqi <dbl>
```
…
---

## Detrend

Step 2. Augment the data with model results (using `broom::augment()`)

```r
dch_aug <- augment(m)

dch_aug
```

```
## # A tibble: 2,096 × 8
##   cum_good_aqi date       .fitted .resid    .hat .sigma .cooksd .std.resid
##          <dbl> <date>       <dbl>  <dbl>   <dbl>  <dbl>   <dbl>      <dbl>
## 1            1 2016-01-01   -27.6   28.6 0.00190   20.8 0.00180       1.37
## 2            2 2016-01-02   -26.8   28.8 0.00190   20.8 0.00183       1.39
## 3            3 2016-01-03   -26.0   29.0 0.00190   20.8 0.00185       1.40
## 4            4 2016-01-04   -25.3   29.3 0.00189   20.8 0.00188       1.41
## 5            5 2016-01-05   -24.5   29.5 0.00189   20.8 0.00190       1.42
## 6            6 2016-01-06   -23.7   29.7 0.00189   20.8 0.00193       1.43
## # … with 2,090 more rows
```
---

## Detrend

Step 3. Divide the observed value of `cum_good_aqi` by the respective value in the long-term trend (i.e., `.fitted`)

```r
dch_aug <- dch_aug %>%
  mutate(ratio = cum_good_aqi / .fitted, .after = .fitted)

dch_aug
```

```
## # A tibble: 2,096 × 9
##   cum_good_aqi date       .fitted   ratio .resid    .hat .sigma .cooksd
##          <dbl> <date>       <dbl>   <dbl>  <dbl>   <dbl>  <dbl>   <dbl>
## 1            1 2016-01-01   -27.6 -0.0362   28.6 0.00190   20.8 0.00180
## 2            2 2016-01-02   -26.8 -0.0746   28.8 0.00190   20.8 0.00183
## 3            3 2016-01-03   -26.0 -0.115    29.0 0.00190   20.8 0.00185
## 4            4 2016-01-04   -25.3 -0.158    29.3 0.00189   20.8 0.00188
## 5            5 2016-01-05   -24.5 -0.204    29.5 0.00189   20.8 0.00190
## 6            6 2016-01-06   -23.7 -0.253    29.7 0.00189   20.8 0.00193
## # … with 2,090 more rows, and 1 more variable: .std.resid <dbl>
```
…
sf <- sf %>%
  janitor::clean_names() %>%
  mutate(
    date = mdy(date),
    good_aqi = if_else(aqi_value <= 50, 1, 0)
  ) %>%
  filter(!is.na(aqi_value)) %>%
  arrange(date) %>%
  mutate(cum_good_aqi = cumsum(good_aqi), .after = aqi_value)

sf
```

```
## # A tibble: 2,105 × 13
##   date       aqi_value cum_good_aqi main_pollutant site_name    site_id   source
##   <date>         <dbl>        <dbl> <chr>          <chr>        <chr>     <chr> 
## 1 2016-01-01        32            1 PM2.5          Durham Armo… 37-063-0… AQS   
## 2 2016-01-02        37            2 PM2.5          Durham Armo… 37-063-0… AQS   
## 3 2016-01-03        45            3 PM2.5          Durham Armo… 37-063-0… AQS   
## 4 2016-01-04        33            4 PM2.5          Durham Armo… 37-063-0… AQS   
## 5 2016-01-05        27            5 PM2.5          Durham Armo… 37-063-0… AQS   
## 6 2016-01-06        39            6 PM2.5          Durham Armo… 37-063-0… AQS   
## # … with 2,099 more rows, and 6 more variables: x20_year_high_2000_2019 <dbl>,
## #   x20_year_low_2000_2019 <dbl>, x5_year_average_2015_2019 <dbl>,
## #   date_of_20_year_high <chr>, date_of_20_year_low <chr>, good_aqi <dbl>
```
…
